G04*
G04 #@! TF.GenerationSoftware,Altium Limited,Altium Designer,18.1.7 (191)*
G04*
G04 Layer_Physical_Order=1*
G04 Layer_Color=255*
%FSLAX25Y25*%
%MOIN*%
G70*
G01*
G75*
%ADD12C,0.00591*%
%ADD24O,0.01102X0.05906*%
%ADD25O,0.05906X0.01102*%
%ADD26R,0.03937X0.06102*%
%ADD27C,0.01968*%
%ADD28R,0.06693X0.21260*%
%ADD29R,0.03740X0.04921*%
%ADD30R,0.02953X0.03347*%
%ADD31R,0.02756X0.02362*%
%ADD32R,0.01732X0.01378*%
%ADD33C,0.01000*%
%ADD34C,0.03937*%
G36*
X271088Y89378D02*
X271280Y89383D01*
X271452Y89398D01*
X271604Y89423D01*
X271736Y89458D01*
X271847Y89503D01*
X271938Y89558D01*
X272009Y89623D01*
X272060Y89698D01*
X272090Y89783D01*
X272100Y89878D01*
Y87878D01*
X272090Y87973D01*
X272060Y88058D01*
X272009Y88133D01*
X271938Y88198D01*
X271847Y88253D01*
X271736Y88298D01*
X271604Y88333D01*
X271452Y88358D01*
X271280Y88373D01*
X271088Y88378D01*
Y89378D01*
D02*
G37*
D12*
X0Y-10631D02*
X2099D01*
X1049D01*
Y-13780D01*
X3673D02*
X4723D01*
X5248Y-13255D01*
Y-12205D01*
X4723Y-11681D01*
X3673D01*
X3149Y-12205D01*
Y-13255D01*
X3673Y-13780D01*
X6297Y-14829D02*
Y-11681D01*
X7871D01*
X8396Y-12205D01*
Y-13255D01*
X7871Y-13780D01*
X6297D01*
X12594Y-10631D02*
Y-13780D01*
X14693D01*
X16268Y-11681D02*
X17317D01*
X17842Y-12205D01*
Y-13780D01*
X16268D01*
X15743Y-13255D01*
X16268Y-12730D01*
X17842D01*
X18891Y-11681D02*
Y-13255D01*
X19416Y-13780D01*
X20991D01*
Y-14304D01*
X20466Y-14829D01*
X19941D01*
X20991Y-13780D02*
Y-11681D01*
X23614Y-13780D02*
X22565D01*
X22040Y-13255D01*
Y-12205D01*
X22565Y-11681D01*
X23614D01*
X24139Y-12205D01*
Y-12730D01*
X22040D01*
X25189Y-11681D02*
Y-13780D01*
Y-12730D01*
X25714Y-12205D01*
X26238Y-11681D01*
X26763D01*
D24*
X290354Y123721D02*
D03*
X292323D02*
D03*
X294291D02*
D03*
X292323Y88878D02*
D03*
X290354D02*
D03*
X288386D02*
D03*
X280512D02*
D03*
X282480D02*
D03*
X284449D02*
D03*
X286417D02*
D03*
X294291D02*
D03*
X274606D02*
D03*
X276575D02*
D03*
X278543D02*
D03*
X272638D02*
D03*
X286417Y123721D02*
D03*
X284449D02*
D03*
X282480D02*
D03*
X272638D02*
D03*
X274606D02*
D03*
X276575D02*
D03*
X278543D02*
D03*
X280512D02*
D03*
X288386D02*
D03*
D25*
X266043Y95472D02*
D03*
Y107283D02*
D03*
Y103347D02*
D03*
Y105315D02*
D03*
Y109252D02*
D03*
Y115157D02*
D03*
Y111221D02*
D03*
Y113189D02*
D03*
Y117126D02*
D03*
X300886D02*
D03*
Y115157D02*
D03*
Y113189D02*
D03*
Y109252D02*
D03*
Y111221D02*
D03*
Y107283D02*
D03*
X266043Y101378D02*
D03*
Y99410D02*
D03*
Y97441D02*
D03*
X300886Y95472D02*
D03*
Y97441D02*
D03*
Y99410D02*
D03*
Y101378D02*
D03*
Y103347D02*
D03*
Y105315D02*
D03*
D26*
X320177Y39370D02*
D03*
X330413D02*
D03*
D27*
X322146Y204724D02*
D03*
X326083D02*
D03*
X330020D02*
D03*
X322146Y200787D02*
D03*
X326083D02*
D03*
X330020D02*
D03*
X322146Y196850D02*
D03*
X326083D02*
D03*
X330020D02*
D03*
D28*
X308858Y19685D02*
D03*
X328937D02*
D03*
D29*
X330315Y50098D02*
D03*
X324213D02*
D03*
D30*
X330807Y59055D02*
D03*
X326083D02*
D03*
D31*
X330941Y66929D02*
D03*
X327398D02*
D03*
D32*
X329232Y72835D02*
D03*
X331791D02*
D03*
D33*
X7874Y173228D02*
X23095D01*
X15748Y177165D02*
X23095D01*
X7874Y181102D02*
X23622D01*
X15748Y185039D02*
X23622D01*
X7874Y188976D02*
X23622D01*
X15748Y192913D02*
X23622D01*
X7874Y196850D02*
X17468D01*
X15748Y200787D02*
X23622D01*
X21325Y139994D02*
X23524Y137795D01*
X15748Y139994D02*
X21325D01*
X7874Y61024D02*
X21654D01*
X322146Y193440D02*
X324681Y190905D01*
Y177282D02*
Y190905D01*
X290354Y142955D02*
X324681Y177282D01*
X326181Y176660D02*
Y196752D01*
X292323Y142802D02*
X326181Y176660D01*
X326083Y196850D02*
X326181Y196752D01*
X327681Y176039D02*
Y190905D01*
X330020Y193243D01*
X294291Y142649D02*
X327681Y176039D01*
X294291Y123721D02*
Y142649D01*
X292323Y123721D02*
Y142802D01*
X290354Y123721D02*
Y142955D01*
X330020Y193243D02*
Y196850D01*
X322146Y193440D02*
Y196850D01*
X195276Y139370D02*
X217520Y117126D01*
X25919Y139370D02*
X195276D01*
X194067Y137795D02*
X216704Y115157D01*
X23524Y137795D02*
X194067D01*
X193021Y136056D02*
X215889Y113189D01*
X7874Y136056D02*
X193021D01*
X191738Y134556D02*
X215073Y111221D01*
X31965Y134556D02*
X191738D01*
X217520Y117126D02*
X266043D01*
X216704Y115157D02*
X266043D01*
X215889Y113189D02*
X266043D01*
X215073Y111221D02*
X266043D01*
X15748Y43307D02*
X19685D01*
X19685Y43307D01*
X43307Y7874D02*
X48681D01*
X19718Y7874D02*
X19718Y7874D01*
X24016D01*
X51181Y19685D02*
X59055D01*
X27559D02*
X33071D01*
X38976Y25591D01*
X62992D01*
X68898Y19685D01*
X82677D01*
X64961Y17717D02*
X82677D01*
X59055Y23622D02*
X64961Y17717D01*
X48744Y23622D02*
X59055D01*
X44807Y19685D02*
X48744Y23622D01*
X39370Y19685D02*
X44807D01*
X59055D02*
X62992Y15748D01*
X82677D01*
X42339Y13780D02*
X45807Y10311D01*
X35433Y13780D02*
X42339D01*
X31496Y7874D02*
X37008D01*
X40476Y4405D01*
X47334D01*
X50802Y7874D01*
X82677D01*
X58024Y2905D02*
X61024Y5906D01*
X24016Y7874D02*
X28984Y2905D01*
X58024D01*
X45807Y10311D02*
X48681D01*
X61024Y5906D02*
X82677D01*
X48681Y7874D02*
X50649Y9843D01*
X82677D01*
X48681Y10311D02*
X50181Y11811D01*
X82677D01*
X47244Y13780D02*
X82677D01*
Y5906D02*
X265550Y5906D01*
X82677Y7874D02*
X264735Y7874D01*
X82677Y9843D02*
X263919Y9843D01*
X82677Y11811D02*
X263104Y11811D01*
X82677Y13780D02*
X262289Y13780D01*
X82677Y15748D02*
X261473Y15748D01*
X82677Y17717D02*
X260658Y17717D01*
X82677Y19685D02*
X259842Y19685D01*
X265550Y5906D02*
X294291Y34647D01*
Y88878D01*
X264735Y7874D02*
X292323Y35462D01*
Y88878D01*
X263919Y9843D02*
X290354Y36277D01*
Y88878D01*
X263104Y11811D02*
X288386Y37093D01*
Y88878D01*
X262289Y13780D02*
X286417Y37908D01*
Y88878D01*
X261473Y15748D02*
X284449Y38724D01*
Y88878D01*
X260658Y17717D02*
X282480Y39539D01*
Y88878D01*
X259842Y19685D02*
X280512Y40354D01*
Y88878D01*
X7874Y39370D02*
X19685D01*
X21654Y41339D01*
X7874Y47244D02*
X19685D01*
X21654Y45276D01*
X21654Y41339D02*
X247694D01*
X19685Y43307D02*
X246878D01*
X21654Y45276D02*
X246063D01*
X247694Y41339D02*
X278543Y72188D01*
Y88878D01*
X246878Y43307D02*
X276575Y73004D01*
Y88878D01*
X246063Y45276D02*
X274606Y73819D01*
Y88878D01*
X21654Y61024D02*
X23622Y62992D01*
X7874Y68898D02*
X21358D01*
X23327Y66929D01*
X224104D01*
X254616Y97441D01*
X224257Y64961D02*
X254768Y95472D01*
X15748Y64961D02*
X224257D01*
X224410Y62992D02*
X250295Y88878D01*
X23622Y62992D02*
X224410D01*
X254616Y97441D02*
X266043D01*
X250295Y88878D02*
X272638D01*
X254768Y95472D02*
X266043D01*
X7874Y102362D02*
X23622D01*
X28445Y97539D01*
X15748Y98425D02*
X23622D01*
X26059Y95988D01*
X7874Y86614D02*
X23095D01*
X27645Y91164D01*
X15748Y90551D02*
X23622D01*
X25735Y92664D01*
X173526D01*
X182239Y101378D01*
X172037Y97539D02*
X181781Y107283D01*
X28445Y97539D02*
X172037D01*
X26059Y95988D02*
X172607D01*
X181934Y105315D01*
X173228Y94488D02*
X182087Y103347D01*
X7874Y94488D02*
X173228D01*
X27645Y91164D02*
X174147D01*
X182392Y99410D01*
X266043D01*
X181781Y107283D02*
X266043D01*
X181934Y105315D02*
X266043D01*
X182239Y101378D02*
X266043D01*
X7874Y143930D02*
X21358D01*
X25919Y139370D01*
X190762Y133056D02*
X214567Y109252D01*
X32586Y133056D02*
X190762D01*
X27712Y128182D02*
X32586Y133056D01*
X29528Y132120D02*
X31965Y134556D01*
X15748Y132120D02*
X29528D01*
X7874Y128182D02*
X27712D01*
X214567Y109252D02*
X266043D01*
X182087Y103347D02*
X266043D01*
X23095Y173228D02*
X43307Y193440D01*
X23095Y177165D02*
X40870Y194940D01*
X240252D01*
X23622Y181102D02*
X38960Y196440D01*
X240873D01*
X23622Y185039D02*
X36523Y197940D01*
X23622Y188976D02*
X34086Y199440D01*
X23622Y192913D02*
X31649Y200940D01*
X17468Y196850D02*
X17468Y196850D01*
X17468Y196850D01*
X23622D01*
X29212Y202440D01*
X23622Y200787D02*
X26775Y203940D01*
X240873Y196440D02*
X250842Y186471D01*
X240252Y194940D02*
X249342Y185850D01*
X247843Y166528D02*
Y185228D01*
X239631Y193440D02*
X247843Y185228D01*
X250842Y167770D02*
Y186471D01*
X252343Y168392D02*
Y187092D01*
X241495Y197940D02*
X252343Y187092D01*
X253842Y169013D02*
Y187714D01*
X242116Y199440D02*
X253842Y187714D01*
X255343Y169634D02*
Y188335D01*
X242737Y200940D02*
X255343Y188335D01*
X256842Y170255D02*
Y188956D01*
X243359Y202440D02*
X256842Y188956D01*
X258343Y170877D02*
Y189578D01*
X243980Y203940D02*
X258343Y189578D01*
X259842Y171498D02*
Y190199D01*
X244601Y205440D02*
X259842Y190199D01*
X249342Y167149D02*
Y185850D01*
X43307Y193440D02*
X239631Y193440D01*
X7874Y205440D02*
X244601D01*
X258343Y170877D02*
X286417Y142802D01*
X256842Y170255D02*
X284449Y142649D01*
X255343Y169634D02*
X282480Y142496D01*
X247843Y166528D02*
X272638Y141732D01*
X249342Y167149D02*
X274606Y141885D01*
X250842Y167770D02*
X276575Y142038D01*
X252343Y168392D02*
X278543Y142191D01*
X253842Y169013D02*
X280512Y142344D01*
X288386Y123721D02*
Y142955D01*
X286417Y123721D02*
Y142802D01*
X284449Y123721D02*
Y142649D01*
X282480Y123721D02*
Y142496D01*
X272638Y123721D02*
Y141732D01*
X274606Y123721D02*
Y141885D01*
X276575Y123721D02*
Y142038D01*
X278543Y123721D02*
Y142191D01*
X280512Y123721D02*
Y142344D01*
X26775Y203940D02*
X243980D01*
X29212Y202440D02*
X243359D01*
X31649Y200940D02*
X242737D01*
X34086Y199440D02*
X242116D01*
X36523Y197940D02*
X241495D01*
X259842Y171498D02*
X288386Y142955D01*
D34*
X19718Y7874D02*
D03*
X31496Y7874D02*
D03*
X35433Y13780D02*
D03*
X23622D02*
D03*
X27559Y19685D02*
D03*
X39370D02*
D03*
X51181D02*
D03*
X43307Y7874D02*
D03*
X47244Y13780D02*
D03*
X15748Y43307D02*
D03*
X7874Y47244D02*
D03*
Y39370D02*
D03*
X15748Y64961D02*
D03*
X7874Y68898D02*
D03*
Y61024D02*
D03*
Y86614D02*
D03*
Y94488D02*
D03*
X15748Y90551D02*
D03*
Y98425D02*
D03*
X7874Y102362D02*
D03*
Y143930D02*
D03*
X15748Y139994D02*
D03*
Y132120D02*
D03*
X7874Y136056D02*
D03*
Y128182D02*
D03*
Y173228D02*
D03*
Y181102D02*
D03*
X15748Y177165D02*
D03*
Y185039D02*
D03*
Y192913D02*
D03*
Y200787D02*
D03*
X7874Y188976D02*
D03*
Y196850D02*
D03*
Y205440D02*
D03*
M02*
