M48
;Layer_Color=9474304
;FILE_FORMAT=2:5
INCH,TZ
;TYPE=PLATED
T1F00S00C0.01968
%
T01
X19718Y7874
X23622Y13780
X27559Y19685
X39370
X35433Y13780
X31496Y7874
X43307
X47244Y13780
X51181Y19685
X15748Y43307
X7874Y39370
Y47244
Y61024
Y68898
X15748Y64961
Y90551
Y98425
X7874Y94488
Y86614
Y102362
Y128182
Y136056
Y143930
X15748Y139994
Y132120
Y177165
Y185039
Y192913
Y200787
X7874Y196850
Y188976
Y181102
Y173228
Y205440
M30
